{
    "debug": true,
    "auth": {
        "username": "",
        "password": "",
        "host": "127.0.0.1",
        "port": "10011"
    },
    "plugins": {
        "ExamplePlugin": true
    },
    "defaultServer": 1,
    "nickname": "ServerQueryBois"
}
